Quarto Explorations - Data Wrangling with R and Python
…
array(['Cutthroat trout', nan, 'Coastal giant salamander',
       'Cascade torrent salamander'], dtype=object)

Selecting Columns

Subset a datafame based on columns of interst

 R
 Python

trout_salamander_R <- trout_salamander_R %>% 
  select(year, sitecode, species, length_1_mm, weight_g)
trout_salamander_R

# A tibble: 32,209 × 5
    year sitecode species         length_1_mm weight_g
   <dbl> <chr>    <chr>                 <dbl>    <dbl>
 1  1987 MACKCC-L Cutthroat trout          58     1.75
 2  1987 MACKCC-L Cutthroat trout          61     1.95
 3  1987 MACKCC-L Cutthroat trout          89     5.6 
 4  1987 MACKCC-L Cutthroat trout          58     2.15
 5  1987 MACKCC-L Cutthroat trout          93     6.9 
 6  1987 MACKCC-L Cutthroat trout          86     5.9 
 7  1987 MACKCC-L Cutthroat trout         107    10.5 
 8  1987 MACKCC-L Cutthroat trout         131    20.6 
 9  1987 MACKCC-L Cutthroat trout         103     9.55
10  1987 MACKCC-L Cutthroat trout         117    13   
# … with 32,199 more rows
…
[32209 rows x 5 columns]

New Columns

Convert the length variable from milimeters to inches and store these values in a new column

 R
 Python

trout_salamander_R <- trout_salamander_R %>% 
  mutate(length_1_in = length_1_mm / 25.4)
trout_salamander_R

# A tibble: 32,209 × 6
    year sitecode species         length_1_mm weight_g length_1_in
   <dbl> <chr>    <chr>                 <dbl>    <dbl>       <dbl>
 1  1987 MACKCC-L Cutthroat trout          58     1.75        2.28
 2  1987 MACKCC-L Cutthroat trout          61     1.95        2.40
 3  1987 MACKCC-L Cutthroat trout          89     5.6         3.50
 4  1987 MACKCC-L Cutthroat trout          58     2.15        2.28
 5  1987 MACKCC-L Cutthroat trout          93     6.9         3.66
 6  1987 MACKCC-L Cutthroat trout          86     5.9         3.39
 7  1987 MACKCC-L Cutthroat trout         107    10.5         4.21
 8  1987 MACKCC-L Cutthroat trout         131    20.6         5.16
 9  1987 MACKCC-L Cutthroat trout         103     9.55        4.06
10  1987 MACKCC-L Cutthroat trout         117    13           4.61
# … with 32,199 more rows
…
# if subset variables aren't specified, rows with any NaN value will be dropped
# trout_salamander_py = trout_salamander_py.dropna()

Sorting

Order rows in a dataframe based on values in a specified column. Default is ascending order.

 R
 Python

trout_salamander_R %>% 
  arrange(length_1_mm)

# A tibble: 18,930 × 6
    year sitecode species                  length_1_mm weight_g length_1_in
   <dbl> <chr>    <chr>                          <dbl>    <dbl>       <dbl>
 1  1995 MACKOG-L Coastal giant salamander          20     0.6        0.787
 2  2009 MACKOG-L Coastal giant salamander          20     0.35       0.787
 3  2010 MACKCC-U Coastal giant salamander          20     0.49       0.787
 4  1994 MACKCC-L Coastal giant salamander          21     0.6        0.827
 5  1994 MACKOG-L Coastal giant salamander          21     0.4        0.827
 6  2009 MACKOG-L Coastal giant salamander          21     0.36       0.827
 7  2009 MACKOG-L Coastal giant salamander          21     0.36       0.827
 8  2009 MACKOG-L Coastal giant salamander          21     0.33       0.827
 9  2009 MACKOG-L Coastal giant salamander          21     0.39       0.827
10  2009 MACKOG-L Coastal giant salamander          21     0.31       0.827
# … with 18,920 more rows
…
[18930 rows x 6 columns]

Sort values by descending order

 R
 Python

trout_salamander_R %>% 
  arrange(desc(length_1_mm))

# A tibble: 18,930 × 6
    year sitecode species         length_1_mm weight_g length_1_in
   <dbl> <chr>    <chr>                 <dbl>    <dbl>       <dbl>
 1  2008 MACKCC-L Cutthroat trout         253     36.4        9.96
 2  2009 MACKCC-M Cutthroat trout         197     67.5        7.76
 3  1994 MACKCC-L Cutthroat trout         196     66.7        7.72
 4  2013 MACKCC-M Cutthroat trout         196     72          7.72
 5  1991 MACKCC-M Cutthroat trout         195     66.8        7.68
 6  2019 MACKCC-M Cutthroat trout         195     71.6        7.68
 7  1992 MACKCC-M Cutthroat trout         194     66.9        7.64
 8  2009 MACKCC-L Cutthroat trout         194     67.0        7.64
 9  1992 MACKOG-M Cutthroat trout         193     61.1        7.60
10  1992 MACKCC-L Cutthroat trout         192     59.2        7.56
# … with 18,920 more rows
…
[18930 rows x 6 columns]

Sort values by multiple variables

 R
 Python

trout_salamander_R %>% 
  arrange(length_1_mm, weight_g, year)

# A tibble: 18,930 × 6
    year sitecode species                  length_1_mm weight_g length_1_in
   <dbl> <chr>    <chr>                          <dbl>    <dbl>       <dbl>
 1  2009 MACKOG-L Coastal giant salamander          20     0.35       0.787
 2  2010 MACKCC-U Coastal giant salamander          20     0.49       0.787
 3  1995 MACKOG-L Coastal giant salamander          20     0.6        0.787
 4  2012 MACKOG-U Coastal giant salamander          21     0.3        0.827
 5  2009 MACKOG-L Coastal giant salamander          21     0.31       0.827
 6  2009 MACKOG-L Coastal giant salamander          21     0.33       0.827
 7  2011 MACKOG-M Coastal giant salamander          21     0.35       0.827
 8  2009 MACKOG-L Coastal giant salamander          21     0.36       0.827
 9  2009 MACKOG-L Coastal giant salamander          21     0.36       0.827
10  2011 MACKOG-M Coastal giant salamander          21     0.37       0.827
# … with 18,920 more rows
…
trout_py = trout_salamander_py[ (trout_salamander_py['species'] == 'Cutthroat trout') ]

Filter data based on values and logical arguments. This example filters for cutthroat trout that are longer than 86 mm.

 R
 Python

large_trout_R <- trout_salamander_R %>% 
  filter(species == 'Cutthroat trout') %>% 
  filter(length_1_mm > 86)
large_trout_R

# A tibble: 6,101 × 6
    year sitecode species         length_1_mm weight_g length_1_in
   <dbl> <chr>    <chr>                 <dbl>    <dbl>       <dbl>
 1  1987 MACKCC-L Cutthroat trout          89     5.6         3.50
 2  1987 MACKCC-L Cutthroat trout          93     6.9         3.66
 3  1987 MACKCC-L Cutthroat trout         107    10.5         4.21
 4  1987 MACKCC-L Cutthroat trout         131    20.6         5.16
 5  1987 MACKCC-L Cutthroat trout         103     9.55        4.06
 6  1987 MACKCC-L Cutthroat trout         117    13           4.61
 7  1987 MACKCC-L Cutthroat trout         100     8.25        3.94
 8  1987 MACKCC-L Cutthroat trout         127    17.7         5   
 9  1987 MACKCC-L Cutthroat trout          99     8.15        3.90
10  1987 MACKCC-L Cutthroat trout         111    11.2         4.37
# … with 6,091 more rows
…
